…
This means these variable names contain values of variables, so we will need to use `pivot_longer` to move them into new variables!  We'll call this new variable `key` for now and move the values associated with this new variable `cases`.

We will also remove all the missing values at this point to make the data set easier to work with.  We can do this with the `values_drop_na = TRUE` option:

``` r
who1 <- who %>% 
  pivot_longer(new_sp_m014:newrel_f65, 
               names_to = "key", 
               values_to = "cases", 
               values_drop_na = TRUE)
who1
```

```
## # A tibble: 76,046 × 6
##    country     iso2  iso3   year key          cases
##    <chr>       <chr> <chr> <dbl> <chr>        <dbl>
##  1 Afghanistan AF    AFG    1997 new_sp_m014      0
##  2 Afghanistan AF    AFG    1997 new_sp_m1524    10
##  3 Afghanistan AF    AFG    1997 new_sp_m2534     6
##  4 Afghanistan AF    AFG    1997 new_sp_m3544     3
##  5 Afghanistan AF    AFG    1997 new_sp_m4554     5
##  6 Afghanistan AF    AFG    1997 new_sp_m5564     2
##  7 Afghanistan AF    AFG    1997 new_sp_m65       0
##  8 Afghanistan AF    AFG    1997 new_sp_f014      5
##  9 Afghanistan AF    AFG    1997 new_sp_f1524    38
## 10 Afghanistan AF    AFG    1997 new_sp_f2534    36
## # ℹ 76,036 more rows
```
…
``` r
who2 <- who1 %>% 
  mutate(key = stringr::str_replace(key, "newrel", "new_rel"))

who2
```

```
## # A tibble: 76,046 × 6
##    country     iso2  iso3   year key          cases
##    <chr>       <chr> <chr> <dbl> <chr>        <dbl>
##  1 Afghanistan AF    AFG    1997 new_sp_m014      0
##  2 Afghanistan AF    AFG    1997 new_sp_m1524    10
##  3 Afghanistan AF    AFG    1997 new_sp_m2534     6
##  4 Afghanistan AF    AFG    1997 new_sp_m3544     3
##  5 Afghanistan AF    AFG    1997 new_sp_m4554     5
##  6 Afghanistan AF    AFG    1997 new_sp_m5564     2
##  7 Afghanistan AF    AFG    1997 new_sp_m65       0
##  8 Afghanistan AF    AFG    1997 new_sp_f014      5
##  9 Afghanistan AF    AFG    1997 new_sp_f1524    38
## 10 Afghanistan AF    AFG    1997 new_sp_f2534    36
## # ℹ 76,036 more rows
```

Now we can separate the `key` column across the `_` character to split into `new`, `type`, and `sex_age` columns:

``` r
who3 <- who2 %>% 
  separate(key, into = c("new", "type", "sex_age"), sep = "_")
who3
```

```
## # A tibble: 76,046 × 8
##    country     iso2  iso3   year new   type  sex_age cases
##    <chr>       <chr> <chr> <dbl> <chr> <chr> <chr>   <dbl>
##  1 Afghanistan AF    AFG    1997 new   sp    m014        0
##  2 Afghanistan AF    AFG    1997 new   sp    m1524      10
##  3 Afghanistan AF    AFG    1997 new   sp    m2534       6
##  4 Afghanistan AF    AFG    1997 new   sp    m3544       3
##  5 Afghanistan AF    AFG    1997 new   sp    m4554       5
##  6 Afghanistan AF    AFG    1997 new   sp    m5564       2
##  7 Afghanistan AF    AFG    1997 new   sp    m65         0
##  8 Afghanistan AF    AFG    1997 new   sp    f014        5
##  9 Afghanistan AF    AFG    1997 new   sp    f1524      38
## 10 Afghanistan AF    AFG    1997 new   sp    f2534      36
## # ℹ 76,036 more rows
```

Finally, we can separate the `sex_age` column into just `sex` and `age` by splitting after the first position:

``` r
who4 <- who3 %>% 
  separate(sex_age, into = c("sex", "age"), sep = 1)
who4
```

```
## # A tibble: 76,046 × 9
##    country     iso2  iso3   year new   type  sex   age   cases
##    <chr>       <chr> <chr> <dbl> <chr> <chr> <chr> <chr> <dbl>
##  1 Afghanistan AF    AFG    1997 new   sp    m     014       0
##  2 Afghanistan AF    AFG    1997 new   sp    m     1524     10
##  3 Afghanistan AF    AFG    1997 new   sp    m     2534      6
##  4 Afghanistan AF    AFG    1997 new   sp    m     3544      3
##  5 Afghanistan AF    AFG    1997 new   sp    m     4554      5
##  6 Afghanistan AF    AFG    1997 new   sp    m     5564      2
##  7 Afghanistan AF    AFG    1997 new   sp    m     65        0
##  8 Afghanistan AF    AFG    1997 new   sp    f     014       5
##  9 Afghanistan AF    AFG    1997 new   sp    f     1524     38
## 10 Afghanistan AF    AFG    1997 new   sp    f     2534     36
## # ℹ 76,036 more rows
```
…
