…
``` r
load("nmes2018.rda")
```

# Working with data tibbles and data frames

We have already seen a little bit about tibbles in Module 2.  Recall that tibbles are a version of a data frame that adapts to print out only the number or rows/columns that will fit on your screen:

``` r
nmes.data
```

```
## # A tibble: 4,078 × 18
##       id totalexp lc5   chd5   eversmk current former packyears yearsince   bmi
##    <int>    <dbl> <fct> <fct>  <fct>   <fct>   <fct>      <dbl>     <int> <dbl>
##  1 20449  25952.  LC    No CHD no      <NA>    no         0             0  24.0
##  2 15534    378.  No LC No CHD Yes     Yes     no         3             0  26.7
##  3  9503     51.2 No LC No CHD Yes     no      Yes       40             9  22.3
##  4 15024   1899.  No LC No CHD no      <NA>    no         0             0  25.1
##  5 17817    154.  No LC No CHD Yes     Yes     no        86             0  20.2
##  6 31716    270   No LC No CHD no      <NA>    no         0             0  22.2
##  7   679    142   No LC No CHD no      <NA>    no         0             0  24.4
##  8 32819    898.  No LC No CHD Yes     no      Yes        0.900        32  24.1
##  9 33173    346   No LC No CHD no      <NA>    no         0             0  17.5
## 10 38247   2543.  No LC No CHD no      <NA>    no         0             0  25.4
## # ℹ 4,068 more rows
## # ℹ 8 more variables: beltuse <fct>, educate <fct>, marital <int>, poor <fct>,
## #   age <dbl>, female <fct>, mscd <chr>, ageCat <fct>
```

Remember, you can always see the whole data set with the `View()` function:

``` r
View(nmes.data)
```

Or you can view all the columns by using the `print()` function with the `width = Inf` options.  Notice here we can "pipe" our data into the `print()` function:

``` r
nmes.data %>% print(width = Inf)
```

``` scroll-200
## # A tibble: 4,078 × 18
##       id totalexp lc5   chd5   eversmk current former packyears yearsince   bmi
##    <int>    <dbl> <fct> <fct>  <fct>   <fct>   <fct>      <dbl>     <int> <dbl>
##  1 20449  25952.  LC    No CHD no      <NA>    no         0             0  24.0
##  2 15534    378.  No LC No CHD Yes     Yes     no         3             0  26.7
##  3  9503     51.2 No LC No CHD Yes     no      Yes       40             9  22.3
##  4 15024   1899.  No LC No CHD no      <NA>    no         0             0  25.1
##  5 17817    154.  No LC No CHD Yes     Yes     no        86             0  20.2
##  6 31716    270   No LC No CHD no      <NA>    no         0             0  22.2
##  7   679    142   No LC No CHD no      <NA>    no         0             0  24.4
##  8 32819    898.  No LC No CHD Yes     no      Yes        0.900        32  24.1
##  9 33173    346   No LC No CHD no      <NA>    no         0             0  17.5
## 10 38247   2543.  No LC No CHD no      <NA>    no         0             0  25.4
##    beltuse educate  marital poor       age female mscd  ageCat 
##    <fct>   <fct>      <int> <fct>    <dbl> <fct>  <chr> <fct>  
##  1 Some    Other          1 Poor        78 Female Yes   (65,99]
##  2 Always  CollGrad       5 Not Poor    30 Female No    (0,40] 
##  3 Always  Other          1 Not Poor    72 Female No    (65,99]
##  4 Always  Other          2 Not Poor    64 Female No    (40,65]
##  5 Always  CollGrad       1 Not Poor    59 Female No    (40,65]
##  6 Some    CollGrad       5 Not Poor    25 Male   No    (0,40] 
##  7 Always  CollGrad       1 Not Poor    58 Female No    (40,65]
##  8 Always  CollGrad       1 Not Poor    56 Female No    (40,65]
##  9 Always  CollGrad       1 Not Poor    26 Female No    (0,40] 
## 10 Always  Other          1 Poor        81 Female No    (65,99]
## # ℹ 4,068 more rows
```
…
``` r
nmesData
```

```
## # A tibble: 4,078 × 18
##       id totalexp lc5   chd5   eversmk current former packyears yearsince   bmi
##    <dbl>    <dbl> <chr> <chr>  <chr>   <chr>   <chr>      <dbl>     <dbl> <dbl>
##  1 20449  25952.  LC    No CHD no      <NA>    no         0             0  24.0
##  2 15534    378.  No LC No CHD Yes     Yes     no         3             0  26.7
##  3  9503     51.2 No LC No CHD Yes     no      Yes       40             9  22.3
##  4 15024   1899.  No LC No CHD no      <NA>    no         0             0  25.1
##  5 17817    154.  No LC No CHD Yes     Yes     no        86             0  20.2
##  6 31716    270   No LC No CHD no      <NA>    no         0             0  22.2
##  7   679    142   No LC No CHD no      <NA>    no         0             0  24.4
##  8 32819    898.  No LC No CHD Yes     no      Yes        0.900        32  24.1
##  9 33173    346   No LC No CHD no      <NA>    no         0             0  17.5
## 10 38247   2543.  No LC No CHD no      <NA>    no         0             0  25.4
## # ℹ 4,068 more rows
## # ℹ 8 more variables: beltuse <chr>, educate <chr>, marital <dbl>, poor <chr>,
## #   age <dbl>, female <chr>, mscd <chr>, ageCat <chr>
```
…
``` r
nmesData
```

```
## # A tibble: 4,078 × 18
##       id totalexp lc5   chd5   eversmk current former packyears yearsince   bmi
##    <dbl>    <dbl> <chr> <chr>  <chr>   <chr>   <chr>      <dbl>     <dbl> <dbl>
##  1 20449  25952.  LC    No CHD no      <NA>    no         0             0  24.0
##  2 15534    378.  No LC No CHD Yes     Yes     no         3             0  26.7
##  3  9503     51.2 No LC No CHD Yes     no      Yes       40             9  22.3
##  4 15024   1899.  No LC No CHD no      <NA>    no         0             0  25.1
##  5 17817    154.  No LC No CHD Yes     Yes     no        86             0  20.2
##  6 31716    270   No LC No CHD no      <NA>    no         0             0  22.2
##  7   679    142   No LC No CHD no      <NA>    no         0             0  24.4
##  8 32819    898.  No LC No CHD Yes     no      Yes        0.900        32  24.1
##  9 33173    346   No LC No CHD no      <NA>    no         0             0  17.5
## 10 38247   2543.  No LC No CHD no      <NA>    no         0             0  25.4
## # ℹ 4,068 more rows
## # ℹ 8 more variables: beltuse <chr>, educate <chr>, marital <dbl>, poor <chr>,
## #   age <dbl>, female <chr>, mscd <chr>, ageCat <chr>
```
…
``` r
nmesData
```

```
## # A tibble: 4,081 × 18
##    This file contains data f…¹    ...2 ...3  ...4  ...5  ...6  ...7   ...8  ...9
##    <chr>                         <dbl> <chr> <chr> <chr> <chr> <chr> <dbl> <dbl>
##  1 https://www.icpsr.umich.ed…    NA   <NA>  <NA>  <NA>  <NA>  <NA>     NA    NA
##  2 This file contains only a …    NA   <NA>  <NA>  <NA>  <NA>  <NA>     NA    NA
##  3 id                             NA   lc5   chd5  ever… curr… form…    NA    NA
##  4 20449                       25952.  LC    No C… no    <NA>  no        0     0
##  5 15534                         378.  No LC No C… Yes   Yes   no        3     0
##  6 9503                           51.2 No LC No C… Yes   no    Yes      40     9
##  7 15024                        1899.  No LC No C… no    <NA>  no        0     0
##  8 17817                         154.  No LC No C… Yes   Yes   no       86     0
##  9 31716                         270   No LC No C… no    <NA>  no        0     0
## 10 679                           142   No LC No C… no    <NA>  no        0     0
## # ℹ 4,071 more rows
## # ℹ abbreviated name:
## #   ¹​`This file contains data from the National Medical Exenditures Survey, 1987.`
## # ℹ 9 more variables: ...10 <dbl>, ...11 <chr>, ...12 <chr>, ...13 <dbl>,
## #   ...14 <chr>, ...15 <dbl>, ...16 <chr>, ...17 <chr>, ...18 <chr>
```
…
``` r
nmesData
```

```
## # A tibble: 4,078 × 18
##       id totalexp lc5   chd5   eversmk current former packyears yearsince   bmi
##    <dbl>    <dbl> <chr> <chr>  <chr>   <chr>   <chr>      <dbl>     <dbl> <dbl>
##  1 20449  25952.  LC    No CHD no      <NA>    no         0             0  24.0
##  2 15534    378.  No LC No CHD Yes     Yes     no         3             0  26.7
##  3  9503     51.2 No LC No CHD Yes     no      Yes       40             9  22.3
##  4 15024   1899.  No LC No CHD no      <NA>    no         0             0  25.1
##  5 17817    154.  No LC No CHD Yes     Yes     no        86             0  20.2
##  6 31716    270   No LC No CHD no      <NA>    no         0             0  22.2
##  7   679    142   No LC No CHD no      <NA>    no         0             0  24.4
##  8 32819    898.  No LC No CHD Yes     no      Yes        0.900        32  24.1
##  9 33173    346   No LC No CHD no      <NA>    no         0             0  17.5
## 10 38247   2543.  No LC No CHD no      <NA>    no         0             0  25.4
## # ℹ 4,068 more rows
## # ℹ 8 more variables: beltuse <chr>, educate <chr>, marital <dbl>, poor <chr>,
## #   age <dbl>, female <chr>, mscd <chr>, ageCat <chr>
```
…
``` r
nmesData
```

```
## # A tibble: 4,077 × 18
##    `20449` `25951.58008` LC    `No CHD` no...5 `NA`  no...7 `0...8` `0...9`
##      <dbl>         <dbl> <chr> <chr>    <chr>  <chr> <chr>    <dbl>   <dbl>
##  1   15534         378.  No LC No CHD   Yes    Yes   no       3           0
##  2    9503          51.2 No LC No CHD   Yes    no    Yes     40           9
##  3   15024        1899.  No LC No CHD   no     <NA>  no       0           0
##  4   17817         154.  No LC No CHD   Yes    Yes   no      86           0
##  5   31716         270   No LC No CHD   no     <NA>  no       0           0
##  6     679         142   No LC No CHD   no     <NA>  no       0           0
##  7   32819         898.  No LC No CHD   Yes    no    Yes      0.900      32
##  8   33173         346   No LC No CHD   no     <NA>  no       0           0
##  9   38247        2543.  No LC No CHD   no     <NA>  no       0           0
## 10    2689        8331.  No LC CHD      Yes    no    Yes     26           9
## # ℹ 4,067 more rows
## # ℹ 9 more variables: `23.96408272` <dbl>, Some <chr>, Other <chr>, `1` <dbl>,
## #   Poor <chr>, `78` <dbl>, Female <chr>, Yes <chr>, `(65,99]` <chr>
```
…
``` r
nmesData
```

```
## # A tibble: 4,078 × 18
##       X1      X2 X3    X4     X5    X6    X7        X8    X9   X10 X11    X12   
##    <dbl>   <dbl> <chr> <chr>  <chr> <chr> <chr>  <dbl> <dbl> <dbl> <chr>  <chr> 
##  1 20449 25952.  LC    No CHD no    <NA>  no     0         0  24.0 Some   Other 
##  2 15534   378.  No LC No CHD Yes   Yes   no     3         0  26.7 Always CollG…
##  3  9503    51.2 No LC No CHD Yes   no    Yes   40         9  22.3 Always Other 
##  4 15024  1899.  No LC No CHD no    <NA>  no     0         0  25.1 Always Other 
##  5 17817   154.  No LC No CHD Yes   Yes   no    86         0  20.2 Always CollG…
##  6 31716   270   No LC No CHD no    <NA>  no     0         0  22.2 Some   CollG…
##  7   679   142   No LC No CHD no    <NA>  no     0         0  24.4 Always CollG…
##  8 32819   898.  No LC No CHD Yes   no    Yes    0.900    32  24.1 Always CollG…
##  9 33173   346   No LC No CHD no    <NA>  no     0         0  17.5 Always CollG…
## 10 38247  2543.  No LC No CHD no    <NA>  no     0         0  25.4 Always Other 
## # ℹ 4,068 more rows
## # ℹ 6 more variables: X13 <dbl>, X14 <chr>, X15 <dbl>, X16 <chr>, X17 <chr>,
## #   X18 <chr>
```
…
