…
Note that this last vector, `x1`, doesn't have any levels, because it isn't a factor.  It's our original character vector!

You may wonder why we care so much about the order of the factor levels.  Being able to put the levels in order can be very helpful for plotting and modeling purposes!  We'll see how this can be useful for plotting purposes later in this document.  For modeling purposes, the usefulness is in choosing which levels you want to compare in your model!

We'll look at factors using a set of data from the General Social Survey (GSS), that is stored in the object `gss_cat`.  Take a look at this dataset:

``` r
gss_cat
```

```
## # A tibble: 21,483 × 9
##     year marital         age race  rincome        partyid    relig denom tvhours
##    <int> <fct>         <int> <fct> <fct>          <fct>      <fct> <fct>   <int>
##  1  2000 Never married    26 White $8000 to 9999  Ind,near … Prot… Sout…      12
##  2  2000 Divorced         48 White $8000 to 9999  Not str r… Prot… Bapt…      NA
##  3  2000 Widowed          67 White Not applicable Independe… Prot… No d…       2
##  4  2000 Never married    39 White Not applicable Ind,near … Orth… Not …       4
##  5  2000 Divorced         25 White Not applicable Not str d… None  Not …       1
##  6  2000 Married          25 White $20000 - 24999 Strong de… Prot… Sout…      NA
##  7  2000 Never married    36 White $25000 or more Not str r… Chri… Not …       3
##  8  2000 Divorced         44 White $7000 to 7999  Ind,near … Prot… Luth…      NA
##  9  2000 Married          44 White $25000 or more Not str d… Prot… Other       0
## 10  2000 Married          47 White $25000 or more Strong re… Prot… Sout…       3
## # ℹ 21,473 more rows
```
…
## Practice

(1) Look at the levels for each factor variable in the `gss_cat` data set.  For each of these factor variables, are the order of the levels arbitrary or meaningful?

``` r
gss_cat
```

```
## # A tibble: 21,483 × 9
##     year marital         age race  rincome        partyid    relig denom tvhours
##    <int> <fct>         <int> <fct> <fct>          <fct>      <fct> <fct>   <int>
##  1  2000 Never married    26 White $8000 to 9999  Ind,near … Prot… Sout…      12
##  2  2000 Divorced         48 White $8000 to 9999  Not str r… Prot… Bapt…      NA
##  3  2000 Widowed          67 White Not applicable Independe… Prot… No d…       2
##  4  2000 Never married    39 White Not applicable Ind,near … Orth… Not …       4
##  5  2000 Divorced         25 White Not applicable Not str d… None  Not …       1
##  6  2000 Married          25 White $20000 - 24999 Strong de… Prot… Sout…      NA
##  7  2000 Never married    36 White $25000 or more Not str r… Chri… Not …       3
##  8  2000 Divorced         44 White $7000 to 7999  Ind,near … Prot… Luth…      NA
##  9  2000 Married          44 White $25000 or more Not str d… Prot… Other       0
## 10  2000 Married          47 White $25000 or more Strong re… Prot… Sout…       3
## # ℹ 21,473 more rows
```
…
``` r
nmesRAW
```

```
## # A tibble: 4,078 × 16
##       id totalexp   lc5  chd5 eversmk current former packyears yearsince   bmi
##    <dbl>    <dbl> <dbl> <dbl>   <dbl>   <dbl>  <dbl>     <dbl>     <dbl> <dbl>
##  1 20449  25952.      1     0       0      NA      0     0             0  24.0
##  2 15534    378.      0     0       1       1      0     3             0  26.7
##  3  9503     51.2     0     0       1       0      1    40             9  22.3
##  4 15024   1899.      0     0       0      NA      0     0             0  25.1
##  5 17817    154.      0     0       1       1      0    86             0  20.2
##  6 31716    270       0     0       0      NA      0     0             0  22.2
##  7   679    142       0     0       0      NA      0     0             0  24.4
##  8 32819    898.      0     0       1       0      1     0.900        32  24.1
##  9 33173    346       0     0       0      NA      0     0             0  17.5
## 10 38247   2543.      0     0       0      NA      0     0             0  25.4
## # ℹ 4,068 more rows
## # ℹ 6 more variables: beltuse <dbl>, educate <dbl>, marital <dbl>, poor <dbl>,
## #   age <dbl>, female <dbl>
```
…
(4) Finally, once you are happy with your recoding, you can over-write your original variable with the recoded one and remove the recoded one!

``` r
nmesRAW <- nmesRAW %>%
  mutate(eversmk = eversmk_recode) %>%
  select(-eversmk_recode)

nmesRAW
```

```
## # A tibble: 4,078 × 16
##       id totalexp   lc5  chd5 eversmk   current former packyears yearsince   bmi
##    <dbl>    <dbl> <dbl> <dbl> <fct>       <dbl>  <dbl>     <dbl>     <dbl> <dbl>
##  1 20449  25952.      1     0 Never sm…      NA      0     0             0  24.0
##  2 15534    378.      0     0 Ever smo…       1      0     3             0  26.7
##  3  9503     51.2     0     0 Ever smo…       0      1    40             9  22.3
##  4 15024   1899.      0     0 Never sm…      NA      0     0             0  25.1
##  5 17817    154.      0     0 Ever smo…       1      0    86             0  20.2
##  6 31716    270       0     0 Never sm…      NA      0     0             0  22.2
##  7   679    142       0     0 Never sm…      NA      0     0             0  24.4
##  8 32819    898.      0     0 Ever smo…       0      1     0.900        32  24.1
##  9 33173    346       0     0 Never sm…      NA      0     0             0  17.5
## 10 38247   2543.      0     0 Never sm…      NA      0     0             0  25.4
## # ℹ 4,068 more rows
## # ℹ 6 more variables: beltuse <dbl>, educate <dbl>, marital <dbl>, poor <dbl>,
## #   age <dbl>, female <dbl>
```
…
``` r
nmesRAW <- nmesRAW %>%
  mutate(eversmk = fct_recode(factor(eversmk),
                              "Never smoker" = "0",
                              "Ever smoker" = "1"
                              ))

nmesRAW
```

```
## # A tibble: 4,078 × 16
##       id totalexp   lc5  chd5 eversmk   current former packyears yearsince   bmi
##    <dbl>    <dbl> <dbl> <dbl> <fct>       <dbl>  <dbl>     <dbl>     <dbl> <dbl>
##  1 20449  25952.      1     0 Never sm…      NA      0     0             0  24.0
##  2 15534    378.      0     0 Ever smo…       1      0     3             0  26.7
##  3  9503     51.2     0     0 Ever smo…       0      1    40             9  22.3
##  4 15024   1899.      0     0 Never sm…      NA      0     0             0  25.1
##  5 17817    154.      0     0 Ever smo…       1      0    86             0  20.2
##  6 31716    270       0     0 Never sm…      NA      0     0             0  22.2
##  7   679    142       0     0 Never sm…      NA      0     0             0  24.4
##  8 32819    898.      0     0 Ever smo…       0      1     0.900        32  24.1
##  9 33173    346       0     0 Never sm…      NA      0     0             0  17.5
## 10 38247   2543.      0     0 Never sm…      NA      0     0             0  25.4
## # ℹ 4,068 more rows
## # ℹ 6 more variables: beltuse <dbl>, educate <dbl>, marital <dbl>, poor <dbl>,
## #   age <dbl>, female <dbl>
```
…
