…
``` r
load("nmesSub.rda")
```

The command above loaded a datafile that was saved into an file called `nmesSub.rda`.  If you look in the "Environment" window (upper right) in Rstudio, you will now see there's an object called `nmes.data` available for you to use in your R workspace. 

We can take a look at this data by simply typing the name of the data:


``` r
nmes.data
```

```
## # A tibble: 100 × 18
##       id totalexp lc5   chd5   eversmk current former packyears yearsince   bmi
##    <int>    <dbl> <fct> <fct>  <fct>   <fct>   <fct>      <dbl>     <int> <dbl>
##  1 35339   1874.  No LC No CHD Yes     no      Yes        0.450        22  28.5
##  2 32648    125   No LC No CHD Yes     no      Yes        0.5           2  27.0
##  3 37857   1026.  No LC No CHD Yes     no      Yes       36            16  28.3
##  4  6247    644.  No LC No CHD no      <NA>    no         0             0  24.4
##  5  3006    134   No LC No CHD Yes     Yes     no         3             0  21.3
##  6  1813   7281.  No LC No CHD Yes     Yes     no        12             0  21.3
##  7  6129     56.7 No LC No CHD no      <NA>    no         0             0  28.3
##  8  2278   7333.  No LC No CHD Yes     Yes     no         7.5           0  23.8
##  9 35435    156   No LC No CHD Yes     Yes     no        21             0  28.3
## 10 11022   1430.  No LC No CHD Yes     Yes     no         6             0  26.4
## # ℹ 90 more rows
## # ℹ 8 more variables: beltuse <fct>, educate <fct>, marital <int>, poor <fct>,
## #   age <dbl>, female <fct>, mscd <chr>, ageCat <fct>
```
…
