…
Now back to our data! Recall that this `nmes.data` object is a data frame, which is a collection of observations (in the rows) across different variables (in the columns). Remember you can see the full dataset in a tab by typing:

``` r
View(nmes.data)
```

First lets look more closely at how the data prints when we view it in `R`:

``` r
nmes.data
```

```
## # A tibble: 4,078 × 18
##       id totalexp lc5   chd5   eversmk current former packyears yearsince   bmi
##    <int>    <dbl> <fct> <fct>  <fct>   <fct>   <fct>      <dbl>     <int> <dbl>
##  1 20449  25952.  LC    No CHD no      <NA>    no         0             0  24.0
##  2 15534    378.  No LC No CHD Yes     Yes     no         3             0  26.7
##  3  9503     51.2 No LC No CHD Yes     no      Yes       40             9  22.3
##  4 15024   1899.  No LC No CHD no      <NA>    no         0             0  25.1
##  5 17817    154.  No LC No CHD Yes     Yes     no        86             0  20.2
##  6 31716    270   No LC No CHD no      <NA>    no         0             0  22.2
##  7   679    142   No LC No CHD no      <NA>    no         0             0  24.4
##  8 32819    898.  No LC No CHD Yes     no      Yes        0.900        32  24.1
##  9 33173    346   No LC No CHD no      <NA>    no         0             0  17.5
## 10 38247   2543.  No LC No CHD no      <NA>    no         0             0  25.4
## # ℹ 4,068 more rows
## # ℹ 8 more variables: beltuse <fct>, educate <fct>, marital <int>, poor <fct>,
## #   age <dbl>, female <fct>, mscd <chr>, ageCat <fct>
```

We only see the first few rows of the data and we only see the number of columns that can print on the screen.  Change your window size and run the code again and see again how it adapts!  This is because the data is stored in a **tibble**, which is a data structure that's easy to work with in the `tidyverse`.  We'll learn more about these later!  

We can force `R` to show us all the columns in the dataset by using the `print()` function with `width = Inf`, which will split the columns across multiple rows.

``` r
print(nmes.data, width = Inf)
```

```
## # A tibble: 4,078 × 18
##       id totalexp lc5   chd5   eversmk current former packyears yearsince   bmi
##    <int>    <dbl> <fct> <fct>  <fct>   <fct>   <fct>      <dbl>     <int> <dbl>
##  1 20449  25952.  LC    No CHD no      <NA>    no         0             0  24.0
##  2 15534    378.  No LC No CHD Yes     Yes     no         3             0  26.7
##  3  9503     51.2 No LC No CHD Yes     no      Yes       40             9  22.3
##  4 15024   1899.  No LC No CHD no      <NA>    no         0             0  25.1
##  5 17817    154.  No LC No CHD Yes     Yes     no        86             0  20.2
##  6 31716    270   No LC No CHD no      <NA>    no         0             0  22.2
##  7   679    142   No LC No CHD no      <NA>    no         0             0  24.4
##  8 32819    898.  No LC No CHD Yes     no      Yes        0.900        32  24.1
##  9 33173    346   No LC No CHD no      <NA>    no         0             0  17.5
## 10 38247   2543.  No LC No CHD no      <NA>    no         0             0  25.4
##    beltuse educate  marital poor       age female mscd  ageCat 
##    <fct>   <fct>      <int> <fct>    <dbl> <fct>  <chr> <fct>  
##  1 Some    Other          1 Poor        78 Female Yes   (65,99]
##  2 Always  CollGrad       5 Not Poor    30 Female No    (0,40] 
##  3 Always  Other          1 Not Poor    72 Female No    (65,99]
##  4 Always  Other          2 Not Poor    64 Female No    (40,65]
##  5 Always  CollGrad       1 Not Poor    59 Female No    (40,65]
##  6 Some    CollGrad       5 Not Poor    25 Male   No    (0,40] 
##  7 Always  CollGrad       1 Not Poor    58 Female No    (40,65]
##  8 Always  CollGrad       1 Not Poor    56 Female No    (40,65]
##  9 Always  CollGrad       1 Not Poor    26 Female No    (0,40] 
## 10 Always  Other          1 Poor        81 Female No    (65,99]
## # ℹ 4,068 more rows
```
…
``` r
as.data.frame(nmes.data)
```

Which is easier to view?  When would you use one versus the other?

Going back to our tibble:

``` r
nmes.data
```

```
## # A tibble: 4,078 × 18
##       id totalexp lc5   chd5   eversmk current former packyears yearsince   bmi
##    <int>    <dbl> <fct> <fct>  <fct>   <fct>   <fct>      <dbl>     <int> <dbl>
##  1 20449  25952.  LC    No CHD no      <NA>    no         0             0  24.0
##  2 15534    378.  No LC No CHD Yes     Yes     no         3             0  26.7
##  3  9503     51.2 No LC No CHD Yes     no      Yes       40             9  22.3
##  4 15024   1899.  No LC No CHD no      <NA>    no         0             0  25.1
##  5 17817    154.  No LC No CHD Yes     Yes     no        86             0  20.2
##  6 31716    270   No LC No CHD no      <NA>    no         0             0  22.2
##  7   679    142   No LC No CHD no      <NA>    no         0             0  24.4
##  8 32819    898.  No LC No CHD Yes     no      Yes        0.900        32  24.1
##  9 33173    346   No LC No CHD no      <NA>    no         0             0  17.5
## 10 38247   2543.  No LC No CHD no      <NA>    no         0             0  25.4
## # ℹ 4,068 more rows
## # ℹ 8 more variables: beltuse <fct>, educate <fct>, marital <int>, poor <fct>,
## #   age <dbl>, female <fct>, mscd <chr>, ageCat <fct>
```
…
# Filter rows with `filter()`

The `filter()` function allows us to subset our data by choosing observations (or rows) that meet certain criteria.  The first argument is the name of the data frame.  The second and following arguments are expressions that filter the data based on variable values.

**Example:** Only individuals who have ever smoked

``` r
filter(nmes.data, eversmk == "Yes")
```

```
## # A tibble: 1,994 × 18
##       id totalexp lc5   chd5   eversmk current former packyears yearsince   bmi
##    <int>    <dbl> <fct> <fct>  <fct>   <fct>   <fct>      <dbl>     <int> <dbl>
##  1 15534    378.  No LC No CHD Yes     Yes     no         3             0  26.7
##  2  9503     51.2 No LC No CHD Yes     no      Yes       40             9  22.3
##  3 17817    154.  No LC No CHD Yes     Yes     no        86             0  20.2
##  4 32819    898.  No LC No CHD Yes     no      Yes        0.900        32  24.1
##  5  2689   8331.  No LC CHD    Yes     no      Yes       26             9  29.8
##  6  4258    536.  No LC No CHD Yes     no      Yes        0.200        45  30.2
##  7 22853   1642.  No LC No CHD Yes     Yes     no        28             0  NA  
##  8 35056   1049.  No LC No CHD Yes     Yes     no         2.40          0  20.9
##  9 25793   4108.  No LC No CHD Yes     no      Yes      175             8  27.7
## 10  8127  18694.  No LC CHD    Yes     no      Yes       13            12  24.1
## # ℹ 1,984 more rows
## # ℹ 8 more variables: beltuse <fct>, educate <fct>, marital <int>, poor <fct>,
## #   age <dbl>, female <fct>, mscd <chr>, ageCat <fct>
```

*You can see there are 1,994 individuals who have ever smoked in our data set.*

**Example:** Only individuals who spent more than $10,000 on medical expenditures

``` r
filter(nmes.data, totalexp > 10000)
```

```
## # A tibble: 201 × 18
##       id totalexp lc5   chd5   eversmk current former packyears yearsince   bmi
##    <int>    <dbl> <fct> <fct>  <fct>   <fct>   <fct>      <dbl>     <int> <dbl>
##  1 20449   25952. LC    No CHD no      <NA>    no             0         0  24.0
##  2  8127   18694. No LC CHD    Yes     no      Yes           13        12  24.1
##  3 38147   47284. No LC No CHD no      <NA>    no             0         0  NA  
##  4 22419   26799. No LC No CHD no      <NA>    no             0         0  20.0
##  5 25444  108639. No LC No CHD no      <NA>    no             0         0  22.7
##  6  6800   10293. No LC No CHD no      <NA>    no             0         0  30.1
##  7 31017   13133. No LC CHD    no      <NA>    no             0         0  24.1
##  8 25689   26864. No LC CHD    no      <NA>    no             0         0  20.9
##  9  3289   10936. No LC CHD    no      <NA>    no             0         0  30.1
## 10 30415   13471  No LC No CHD no      <NA>    no             0         0  23.3
## # ℹ 191 more rows
## # ℹ 8 more variables: beltuse <fct>, educate <fct>, marital <int>, poor <fct>,
## #   age <dbl>, female <fct>, mscd <chr>, ageCat <fct>
```

*You can see there are 201 individuals who spent more than $10,000 on medical expenditures.*

**Example:** Only never smokers who spent more than $10,000 on medical expenditures

``` r
filter(nmes.data, eversmk == "no", totalexp > 10000)
```

```
## # A tibble: 86 × 18
##       id totalexp lc5   chd5   eversmk current former packyears yearsince   bmi
##    <int>    <dbl> <fct> <fct>  <fct>   <fct>   <fct>      <dbl>     <int> <dbl>
##  1 20449   25952. LC    No CHD no      <NA>    no             0         0  24.0
##  2 38147   47284. No LC No CHD no      <NA>    no             0         0  NA  
##  3 22419   26799. No LC No CHD no      <NA>    no             0         0  20.0
##  4 25444  108639. No LC No CHD no      <NA>    no             0         0  22.7
##  5  6800   10293. No LC No CHD no      <NA>    no             0         0  30.1
##  6 31017   13133. No LC CHD    no      <NA>    no             0         0  24.1
##  7 25689   26864. No LC CHD    no      <NA>    no             0         0  20.9
##  8  3289   10936. No LC CHD    no      <NA>    no             0         0  30.1
##  9 30415   13471  No LC No CHD no      <NA>    no             0         0  23.3
## 10 32637   20302. No LC No CHD no      <NA>    no             0         0  30.7
## # ℹ 76 more rows
## # ℹ 8 more variables: beltuse <fct>, educate <fct>, marital <int>, poor <fct>,
## #   age <dbl>, female <fct>, mscd <chr>, ageCat <fct>
```

*You can see there are 86 individuals who had never smoked and spent more than $10,000.*

If we want to save any of these *new* data frames for further use, we need to store the result as something using the *assignment operator*, `<-`:

``` r
high_spenders <- filter(nmes.data, totalexp > 10000)
high_spenders
```

```
## # A tibble: 201 × 18
##       id totalexp lc5   chd5   eversmk current former packyears yearsince   bmi
##    <int>    <dbl> <fct> <fct>  <fct>   <fct>   <fct>      <dbl>     <int> <dbl>
##  1 20449   25952. LC    No CHD no      <NA>    no             0         0  24.0
##  2  8127   18694. No LC CHD    Yes     no      Yes           13        12  24.1
##  3 38147   47284. No LC No CHD no      <NA>    no             0         0  NA  
##  4 22419   26799. No LC No CHD no      <NA>    no             0         0  20.0
##  5 25444  108639. No LC No CHD no      <NA>    no             0         0  22.7
##  6  6800   10293. No LC No CHD no      <NA>    no             0         0  30.1
##  7 31017   13133. No LC CHD    no      <NA>    no             0         0  24.1
##  8 25689   26864. No LC CHD    no      <NA>    no             0         0  20.9
##  9  3289   10936. No LC CHD    no      <NA>    no             0         0  30.1
## 10 30415   13471  No LC No CHD no      <NA>    no             0         0  23.3
## # ℹ 191 more rows
## # ℹ 8 more variables: beltuse <fct>, educate <fct>, marital <int>, poor <fct>,
## #   age <dbl>, female <fct>, mscd <chr>, ageCat <fct>
```

We can both store and print out the results in a single line by putting parentheses around the assignment command:

``` r
(highSpenders <- filter(nmes.data, totalexp > 10000))
```

```
## # A tibble: 201 × 18
##       id totalexp lc5   chd5   eversmk current former packyears yearsince   bmi
##    <int>    <dbl> <fct> <fct>  <fct>   <fct>   <fct>      <dbl>     <int> <dbl>
##  1 20449   25952. LC    No CHD no      <NA>    no             0         0  24.0
##  2  8127   18694. No LC CHD    Yes     no      Yes           13        12  24.1
##  3 38147   47284. No LC No CHD no      <NA>    no             0         0  NA  
##  4 22419   26799. No LC No CHD no      <NA>    no             0         0  20.0
##  5 25444  108639. No LC No CHD no      <NA>    no             0         0  22.7
##  6  6800   10293. No LC No CHD no      <NA>    no             0         0  30.1
##  7 31017   13133. No LC CHD    no      <NA>    no             0         0  24.1
##  8 25689   26864. No LC CHD    no      <NA>    no             0         0  20.9
##  9  3289   10936. No LC CHD    no      <NA>    no             0         0  30.1
## 10 30415   13471  No LC No CHD no      <NA>    no             0         0  23.3
## # ℹ 191 more rows
## # ℹ 8 more variables: beltuse <fct>, educate <fct>, marital <int>, poor <fct>,
## #   age <dbl>, female <fct>, mscd <chr>, ageCat <fct>
```
…
```
## [1] TRUE
```

Multiple arguments to the `filter()` function are combined with AND so that all of the expressions must be met in the filtered output.  So the following command subsets to individuals with `eversmk == "No"` AND `totalexp > 10000`.  This gives us never smokers with high expenditures:

``` r
filter(nmes.data, eversmk == "no", totalexp > 10000)
```

```
## # A tibble: 86 × 18
##       id totalexp lc5   chd5   eversmk current former packyears yearsince   bmi
##    <int>    <dbl> <fct> <fct>  <fct>   <fct>   <fct>      <dbl>     <int> <dbl>
##  1 20449   25952. LC    No CHD no      <NA>    no             0         0  24.0
##  2 38147   47284. No LC No CHD no      <NA>    no             0         0  NA  
##  3 22419   26799. No LC No CHD no      <NA>    no             0         0  20.0
##  4 25444  108639. No LC No CHD no      <NA>    no             0         0  22.7
##  5  6800   10293. No LC No CHD no      <NA>    no             0         0  30.1
##  6 31017   13133. No LC CHD    no      <NA>    no             0         0  24.1
##  7 25689   26864. No LC CHD    no      <NA>    no             0         0  20.9
##  8  3289   10936. No LC CHD    no      <NA>    no             0         0  30.1
##  9 30415   13471  No LC No CHD no      <NA>    no             0         0  23.3
## 10 32637   20302. No LC No CHD no      <NA>    no             0         0  30.7
## # ℹ 76 more rows
## # ℹ 8 more variables: beltuse <fct>, educate <fct>, marital <int>, poor <fct>,
## #   age <dbl>, female <fct>, mscd <chr>, ageCat <fct>
```

We can also combine expressions with logical operators ourselves using:

* `&` means AND; all of the conditions must be met
* `|` means OR; at least one of the conditions must be met
* `!` means NOT; the condition must NOT be met

So we could also write the following to get never smokers with high expenditures:

``` r
filter(nmes.data, eversmk == "no" & totalexp > 10000)
```

```
## # A tibble: 86 × 18
##       id totalexp lc5   chd5   eversmk current former packyears yearsince   bmi
##    <int>    <dbl> <fct> <fct>  <fct>   <fct>   <fct>      <dbl>     <int> <dbl>
##  1 20449   25952. LC    No CHD no      <NA>    no             0         0  24.0
##  2 38147   47284. No LC No CHD no      <NA>    no             0         0  NA  
##  3 22419   26799. No LC No CHD no      <NA>    no             0         0  20.0
##  4 25444  108639. No LC No CHD no      <NA>    no             0         0  22.7
##  5  6800   10293. No LC No CHD no      <NA>    no             0         0  30.1
##  6 31017   13133. No LC CHD    no      <NA>    no             0         0  24.1
##  7 25689   26864. No LC CHD    no      <NA>    no             0         0  20.9
##  8  3289   10936. No LC CHD    no      <NA>    no             0         0  30.1
##  9 30415   13471  No LC No CHD no      <NA>    no             0         0  23.3
## 10 32637   20302. No LC No CHD no      <NA>    no             0         0  30.7
## # ℹ 76 more rows
## # ℹ 8 more variables: beltuse <fct>, educate <fct>, marital <int>, poor <fct>,
## #   age <dbl>, female <fct>, mscd <chr>, ageCat <fct>
```

To get never smokers OR those with high expenditures we would write:

``` r
filter(nmes.data, eversmk == "no" | totalexp > 10000)
```

```
## # A tibble: 2,199 × 18
##       id totalexp lc5   chd5   eversmk current former packyears yearsince   bmi
##    <int>    <dbl> <fct> <fct>  <fct>   <fct>   <fct>      <dbl>     <int> <dbl>
##  1 20449   25952. LC    No CHD no      <NA>    no             0         0  24.0
##  2 15024    1899. No LC No CHD no      <NA>    no             0         0  25.1
##  3 31716     270  No LC No CHD no      <NA>    no             0         0  22.2
##  4   679     142  No LC No CHD no      <NA>    no             0         0  24.4
##  5 33173     346  No LC No CHD no      <NA>    no             0         0  17.5
##  6 38247    2543. No LC No CHD no      <NA>    no             0         0  25.4
##  7  9649     127. No LC No CHD no      <NA>    no             0         0  21.3
##  8 11671    1617. No LC No CHD no      <NA>    no             0         0  18.0
##  9  6613    2840. No LC No CHD no      <NA>    no             0         0  26.2
## 10 37969    1803. No LC No CHD no      <NA>    no             0         0  22.9
## # ℹ 2,189 more rows
## # ℹ 8 more variables: beltuse <fct>, educate <fct>, marital <int>, poor <fct>,
## #   age <dbl>, female <fct>, mscd <chr>, ageCat <fct>
```

To get all ever smokers EXCEPT those with high expenditures we could write:

``` r
filter(nmes.data, eversmk == "Yes" & !(totalexp > 10000))
```

```
## # A tibble: 1,879 × 18
##       id totalexp lc5   chd5   eversmk current former packyears yearsince   bmi
##    <int>    <dbl> <fct> <fct>  <fct>   <fct>   <fct>      <dbl>     <int> <dbl>
##  1 15534    378.  No LC No CHD Yes     Yes     no         3             0  26.7
##  2  9503     51.2 No LC No CHD Yes     no      Yes       40             9  22.3
##  3 17817    154.  No LC No CHD Yes     Yes     no        86             0  20.2
##  4 32819    898.  No LC No CHD Yes     no      Yes        0.900        32  24.1
##  5  2689   8331.  No LC CHD    Yes     no      Yes       26             9  29.8
##  6  4258    536.  No LC No CHD Yes     no      Yes        0.200        45  30.2
##  7 22853   1642.  No LC No CHD Yes     Yes     no        28             0  NA  
##  8 35056   1049.  No LC No CHD Yes     Yes     no         2.40          0  20.9
##  9 25793   4108.  No LC No CHD Yes     no      Yes      175             8  27.7
## 10 21497     42.2 No LC No CHD Yes     no      Yes        1             0  21.7
## # ℹ 1,869 more rows
## # ℹ 8 more variables: beltuse <fct>, educate <fct>, marital <int>, poor <fct>,
## #   age <dbl>, female <fct>, mscd <chr>, ageCat <fct>
```
…
*It doesn't look like there are any individuals with missing BMI.*

Instead for missing data we use `is.na()` to decide whether a value is missing:

``` r
filter(nmes.data, is.na(bmi))
```

```
## # A tibble: 124 × 18
##       id totalexp lc5   chd5   eversmk current former packyears yearsince   bmi
##    <int>    <dbl> <fct> <fct>  <fct>   <fct>   <fct>      <dbl>     <int> <dbl>
##  1 22853   1642.  No LC No CHD Yes     Yes     no            28         0    NA
##  2   912    438.  No LC No CHD no      <NA>    no             0         0    NA
##  3 38147  47284.  No LC No CHD no      <NA>    no             0         0    NA
##  4 18735    576.  No LC No CHD no      <NA>    no             0         0    NA
##  5 14370   6726.  No LC No CHD no      <NA>    no             0         0    NA
##  6 18725    155   No LC No CHD no      <NA>    no             0         0    NA
##  7 13512   4692.  No LC No CHD Yes     Yes     no             9         0    NA
##  8 33336     36   No LC No CHD no      <NA>    no             0         0    NA
##  9 35811     63.3 No LC No CHD no      <NA>    no             0         0    NA
## 10 27384   7674.  No LC No CHD no      <NA>    no             0         0    NA
## # ℹ 114 more rows
## # ℹ 8 more variables: beltuse <fct>, educate <fct>, marital <int>, poor <fct>,
## #   age <dbl>, female <fct>, mscd <chr>, ageCat <fct>
```
…
